Hayley Hemme’s Data Analysis Portfolio - Machine Learning
…
Decision Tree Model Specification (regression)

Main Arguments:
  cost_complexity = tune()
  tree_depth = tune()

Computational engine: rpart 

tree_grid <- grid_regular(cost_complexity(),
                          tree_depth(),
                          levels = 5)
tree_grid

# A tibble: 25 × 2
   cost_complexity tree_depth
             <dbl>      <int>
 1    0.0000000001          1
 2    0.0000000178          1
 3    0.00000316            1
 4    0.000562              1
 5    0.1                   1
 6    0.0000000001          4
 7    0.0000000178          4
 8    0.00000316            4
 9    0.000562              4
10    0.1                   4
# … with 15 more rows
…
tree_res %>% 
  collect_metrics() 

# A tibble: 50 × 8
   cost_complexity tree_depth .metric .estimator     mean     n std_err .config 
             <dbl>      <int> <chr>   <chr>         <dbl> <int>   <dbl> <chr>   
 1    0.0000000001          1 rmse    standard     1.19       5  0.0293 Preproc…
 2    0.0000000001          1 rsq     standard     0.0578     5  0.0137 Preproc…
 3    0.0000000178          1 rmse    standard     1.19       5  0.0293 Preproc…
 4    0.0000000178          1 rsq     standard     0.0578     5  0.0137 Preproc…
 5    0.00000316            1 rmse    standard     1.19       5  0.0293 Preproc…
 6    0.00000316            1 rsq     standard     0.0578     5  0.0137 Preproc…
 7    0.000562              1 rmse    standard     1.19       5  0.0293 Preproc…
 8    0.000562              1 rsq     standard     0.0578     5  0.0137 Preproc…
 9    0.1                   1 rmse    standard     1.22       5  0.0295 Preproc…
10    0.1                   1 rsq     standard   NaN          0 NA      Preproc…
# … with 40 more rows
…
Warning: package 'glmnet' was built under R version 4.2.3

Loading required package: Matrix

Warning: package 'Matrix' was built under R version 4.2.2

Attaching package: 'Matrix'

The following objects are masked from 'package:tidyr':

    expand, pack, unpack

Loaded glmnet 4.1-7

# A tibble: 32 × 3
   term                  estimate penalty
   <chr>                    <dbl>   <dbl>
 1 (Intercept)           98.7         0.1
 2 SwollenLymphNodes_Yes  0           0.1
 3 ChestCongestion_Yes    0           0.1
 4 ChillsSweats_Yes       0.0474      0.1
 5 NasalCongestion_Yes   -0.00553     0.1
 6 Sneeze_Yes            -0.216       0.1
 7 Fatigue_Yes            0.0304      0.1
 8 SubjectiveFever_Yes    0.392       0.1
 9 Headache_Yes           0           0.1
10 Weakness_Mild          0           0.1
# … with 22 more rows
…
# tune the grid using our workflow object.
doParallel::registerDoParallel()

set.seed(2020)
lasso_grid <- tune_grid(
  flu_wflow %>% add_model(tune_spec),
  resamples = five_fold,
  grid = lambda_grid)

Let take a look at the results

lasso_grid %>%
  collect_metrics()

# A tibble: 100 × 7
    penalty .metric .estimator   mean     n std_err .config              
      <dbl> <chr>   <chr>       <dbl> <int>   <dbl> <chr>                
 1 1   e-10 rmse    standard   1.22       5 0.0385  Preprocessor1_Model01
 2 1   e-10 rsq     standard   0.0420     5 0.00979 Preprocessor1_Model01
 3 1.60e-10 rmse    standard   1.22       5 0.0385  Preprocessor1_Model02
 4 1.60e-10 rsq     standard   0.0420     5 0.00979 Preprocessor1_Model02
 5 2.56e-10 rmse    standard   1.22       5 0.0385  Preprocessor1_Model03
 6 2.56e-10 rsq     standard   0.0420     5 0.00979 Preprocessor1_Model03
 7 4.09e-10 rmse    standard   1.22       5 0.0385  Preprocessor1_Model04
 8 4.09e-10 rsq     standard   0.0420     5 0.00979 Preprocessor1_Model04
 9 6.55e-10 rmse    standard   1.22       5 0.0385  Preprocessor1_Model05
10 6.55e-10 rsq     standard   0.0420     5 0.00979 Preprocessor1_Model05
# … with 90 more rows
…
