Hayley Hemme’s Data Analysis Portfolio - Model Evaluation
…
Creating function that can be used to prepare the recipe and train the model

flu_fit <- 
  flu_wflow %>% 
  fit(data = train_data)

Extracting the model objects from the workflow

flu_fit %>% 
  extract_fit_parsnip() %>% 
  tidy()

# A tibble: 38 × 5
   term                 estimate std.error statistic p.value
   <chr>                   <dbl>     <dbl>     <dbl>   <dbl>
 1 (Intercept)             1.63      9.40      0.173  0.862 
 2 SwollenLymphNodesYes   -0.241     0.232    -1.04   0.298 
 3 ChestCongestionYes      0.219     0.257     0.853  0.394 
 4 ChillsSweatsYes         0.115     0.332     0.346  0.729 
 5 NasalCongestionYes      0.560     0.311     1.80   0.0713
 6 CoughYNYes             -0.705     0.611    -1.15   0.249 
 7 SneezeYes               0.117     0.248     0.473  0.636 
 8 FatigueYes              0.177     0.438     0.403  0.687 
 9 SubjectiveFeverYes      0.229     0.264     0.868  0.385 
10 HeadacheYes             0.435     0.352     1.24   0.216 
# … with 28 more rows

Using trained workflow to make predictions on testing data

predict(flu_fit, test_data)

Warning in predict.lm(object, newdata, se.fit, scale = 1, type = if (type == :
prediction from a rank-deficient fit may be misleading

# A tibble: 183 × 1
   .pred_class
   <fct>      
 1 No         
 2 No         
 3 No         
 4 No         
 5 No         
 6 Yes        
 7 Yes        
 8 No         
 9 No         
10 Yes        
# … with 173 more rows

flu_aug <- 
  augment(flu_fit, test_data)

Warning in predict.lm(object, newdata, se.fit, scale = 1, type = if (type == :
prediction from a rank-deficient fit may be misleading

Warning in predict.lm(object, newdata, se.fit, scale = 1, type = if (type == :
prediction from a rank-deficient fit may be misleading

# The data look like: 
flu_aug %>%
  select(Nausea, .pred_No, .pred_Yes)

# A tibble: 183 × 3
   Nausea .pred_No .pred_Yes
   <fct>     <dbl>     <dbl>
 1 No        0.962    0.0377
 2 Yes       0.717    0.283 
 3 No        0.680    0.320 
 4 Yes       0.558    0.442 
 5 No        0.830    0.170 
 6 Yes       0.188    0.812 
 7 Yes       0.254    0.746 
 8 No        0.725    0.275 
 9 No        0.720    0.280 
10 Yes       0.281    0.719 
# … with 173 more rows
…
flu_fit_r %>% 
  extract_fit_parsnip() %>% 
  tidy()

# A tibble: 2 × 5
  term         estimate std.error statistic    p.value
  <chr>           <dbl>     <dbl>     <dbl>      <dbl>
1 (Intercept)    -0.790     0.172    -4.59  0.00000447
2 RunnyNoseYes    0.188     0.202     0.930 0.352     

Using trained workflow to make predictions on testing data

predict(flu_fit_r, test_data)

# A tibble: 183 × 1
   .pred_class
   <fct>      
 1 No         
 2 No         
 3 No         
 4 No         
 5 No         
 6 No         
 7 No         
 8 No         
 9 No         
10 No         
# … with 173 more rows

flu_aug_r <- 
  augment(flu_fit_r, test_data)

# The data look like: 
flu_aug_r %>%
  select(Nausea, .pred_No, .pred_Yes)

# A tibble: 183 × 3
   Nausea .pred_No .pred_Yes
   <fct>     <dbl>     <dbl>
 1 No        0.688     0.312
 2 Yes       0.646     0.354
 3 No        0.646     0.354
 4 Yes       0.646     0.354
 5 No        0.688     0.312
 6 Yes       0.688     0.312
 7 Yes       0.646     0.354
 8 No        0.688     0.312
 9 No        0.688     0.312
10 Yes       0.688     0.312
# … with 173 more rows
…
Computational engine: lm 

Creating function that can be used to prepare the recipe and train the model

flu_fit_bt <- 
  flu_wflow_bt %>% 
  fit(data = train_data2)

Extracting the model objects from the workflow

flu_fit_bt %>% 
  extract_fit_parsnip() %>% 
  tidy()

# A tibble: 38 × 5
   term                 estimate std.error statistic   p.value
   <chr>                   <dbl>     <dbl>     <dbl>     <dbl>
 1 (Intercept)           97.8        0.339   289.    0        
 2 SwollenLymphNodesYes  -0.267      0.103    -2.59  0.00996  
 3 ChestCongestionYes     0.111      0.110     1.01  0.313    
 4 ChillsSweatsYes        0.178      0.139     1.28  0.203    
 5 NasalCongestionYes    -0.119      0.129    -0.923 0.356    
 6 CoughYNYes             0.331      0.296     1.12  0.264    
 7 SneezeYes             -0.462      0.112    -4.14  0.0000400
 8 FatigueYes             0.394      0.180     2.19  0.0287   
 9 SubjectiveFeverYes     0.399      0.116     3.45  0.000615 
10 HeadacheYes           -0.0632     0.144    -0.439 0.661    
# … with 28 more rows

Using trained workflow to make predictions on testing data

predict(flu_fit_bt, test_data2)

Warning in predict.lm(object = object$fit, newdata = new_data, type =
"response"): prediction from a rank-deficient fit may be misleading

# A tibble: 183 × 1
   .pred
   <dbl>
 1  98.9
 2  99.6
 3  99.0
 4  98.8
 5  98.8
 6  98.3
 7  99.4
 8  99.3
 9  99.6
10  99.0
# … with 173 more rows

flu_aug_bt <- 
  augment(flu_fit_bt, test_data2)

Warning in predict.lm(object = object$fit, newdata = new_data, type =
"response"): prediction from a rank-deficient fit may be misleading

# The data look like: 
flu_aug_bt %>%
  select(BodyTemp, .pred)

# A tibble: 183 × 2
   BodyTemp .pred
      <dbl> <dbl>
 1     97.8  98.9
 2     98.2  99.6
 3     99    99.0
 4     99.2  98.8
 5     98.5  98.8
 6     98.2  98.3
 7    100.   99.4
 8     97.8  99.3
 9     99.5  99.6
10     99.7  99.0
# … with 173 more rows
…
flu_fit_bt_rn %>% 
  extract_fit_parsnip() %>% 
  tidy()

# A tibble: 2 × 5
  term         estimate std.error statistic p.value
  <chr>           <dbl>     <dbl>     <dbl>   <dbl>
1 (Intercept)    99.0      0.0913   1085.    0     
2 RunnyNoseYes   -0.188    0.109      -1.73  0.0846

Using trained workflow to make predictions on testing data

predict(flu_fit_bt_rn, test_data2)

# A tibble: 183 × 1
   .pred
   <dbl>
 1  98.9
 2  99.0
 3  98.9
 4  98.9
 5  98.9
 6  98.9
 7  98.9
 8  99.0
 9  99.0
10  99.0
# … with 173 more rows

flu_aug_bt_rn <- 
  augment(flu_fit_bt_rn, test_data2)

# The data look like: 
flu_aug_bt_rn %>%
  select(BodyTemp, .pred)

# A tibble: 183 × 2
   BodyTemp .pred
      <dbl> <dbl>
 1     97.8  98.9
 2     98.2  99.0
 3     99    98.9
 4     99.2  98.9
 5     98.5  98.9
 6     98.2  98.9
 7    100.   98.9
 8     97.8  99.0
 9     99.5  99.0
10     99.7  99.0
# … with 173 more rows
…
