Hayley Hemme’s Data Analysis Portfolio - Tidy Tuesday Exercise 2
…
## workflow for decision tree
tree_wf <- workflow() %>%
  add_model(tune_spec) %>%
  add_recipe(eggs_rec)

tree_res <- 
  tree_wf %>% 
  tune_grid(resamples = five_fold,
    grid = tree_grid) 

tree_res %>% 
  collect_metrics() 

# A tibble: 50 × 8
   cost_complexity tree_depth .metric  .estimator  mean     n std_err .config   
             <dbl>      <int> <chr>    <chr>      <dbl> <int>   <dbl> <chr>     
 1    0.0000000001          1 accuracy binary         1     5       0 Preproces…
 2    0.0000000001          1 roc_auc  binary         1     5       0 Preproces…
 3    0.0000000178          1 accuracy binary         1     5       0 Preproces…
 4    0.0000000178          1 roc_auc  binary         1     5       0 Preproces…
 5    0.00000316            1 accuracy binary         1     5       0 Preproces…
 6    0.00000316            1 roc_auc  binary         1     5       0 Preproces…
 7    0.000562              1 accuracy binary         1     5       0 Preproces…
 8    0.000562              1 roc_auc  binary         1     5       0 Preproces…
 9    0.1                   1 accuracy binary         1     5       0 Preproces…
10    0.1                   1 roc_auc  binary         1     5       0 Preproces…
# … with 40 more rows
…
All the models appears to perform similarly… the logistic regression model is the might be the simplest model, so let’s use that to to test model performance against the test_data

# Make predictions for the test set
eggs_results <- test_data %>% 
  select(prod_type) %>% 
  bind_cols(logreg_fit %>% 
              predict(new_data = test_data)) %>% 
  bind_cols(logreg_fit %>% 
              predict(new_data = test_data, type = "prob"))

# Print predictions
eggs_results %>% 
  slice_head(n = 54)

# A tibble: 54 × 4
# Groups:   prod_type [2]
   prod_type  .pred_class `.pred_table eggs` `.pred_hatching eggs`
   <fct>      <fct>                    <dbl>                 <dbl>
 1 table eggs table eggs                1.00              1.62e-12
 2 table eggs table eggs                1.00              1.82e-11
 3 table eggs table eggs                1.00              3.74e-13
 4 table eggs table eggs                1                 2.22e-16
 5 table eggs table eggs                1.00              7.49e-10
 6 table eggs table eggs                1.00              2.27e-12
 7 table eggs table eggs                1                 2.22e-16
 8 table eggs table eggs                1                 2.22e-16
 9 table eggs table eggs                1.00              1.87e-12
10 table eggs table eggs                1                 2.22e-16
# … with 44 more rows
…
