Hayley Hemme’s Data Analysis Portfolio - Visualization Exercise
…
It looks like the column ‘Entity’ contains data for both countries and continents! Let’s try to correct this by dropping observations missing a country code.

HIV_GBD <- HIV_GBD %>% drop_na(Code)

HIV_GBD %>% group_by(Year) %>%  slice_max(`Deaths - HIV/AIDS - Sex: Both - Age: 70+ years (Number)`)

# A tibble: 30 × 8
# Groups:   Year [30]
   Entity Code      Year Deaths - HIV/AIDS - S…¹ Death…² Death…³ Death…⁴ Death…⁵
   <chr>  <chr>    <dbl>                   <dbl>   <dbl>   <dbl>   <dbl>   <dbl>
 1 World  OWID_WRL  1990                    3954   38533  217774    2712   73413
 2 World  OWID_WRL  1991                    5152   49785  281693    3706   90819
 3 World  OWID_WRL  1992                    6567   63068  356532    5013  109445
 4 World  OWID_WRL  1993                    8175   78513  442911    6782  128770
 5 World  OWID_WRL  1994                    9998   95881  538488    9084  147553
 6 World  OWID_WRL  1995                   11907  113569  636910   11721  165293
 7 World  OWID_WRL  1996                   13880  129592  723923   14650  180613
 8 World  OWID_WRL  1997                   15741  144713  803647   17796  193410
 9 World  OWID_WRL  1998                   17651  161922  898187   21356  205780
10 World  OWID_WRL  1999                   19473  179766 1001519   25126  215227
# … with 20 more rows, and abbreviated variable names
#   ¹​`Deaths - HIV/AIDS - Sex: Both - Age: 70+ years (Number)`,
#   ²​`Deaths - HIV/AIDS - Sex: Both - Age: 50-69 years (Number)`,
#   ³​`Deaths - HIV/AIDS - Sex: Both - Age: 15-49 years (Number)`,
#   ⁴​`Deaths - HIV/AIDS - Sex: Both - Age: 5-14 years (Number)`,
#   ⁵​`Deaths - HIV/AIDS - Sex: Both - Age: Under 5 (Number)`
…
